<svg
		xmlns="http://www.w3.org/2000/svg"
		xmlns:xlink="http://www.w3.org/1999/xlink"
		width="48px" height="41px">
	<path fill-rule="evenodd"  fill="#1b1b1b"
		  d="M46.834,26.401 L44.363,22.918 C44.171,24.708 43.749,26.470 43.079,28.169 C41.100,33.195 37.284,37.148 32.333,39.302 C29.749,40.425 27.018,40.988 24.282,40.988 C21.777,40.988 19.268,40.516 16.866,39.569 C11.153,37.319 6.823,32.664 4.985,26.800 L6.320,26.382 C8.031,31.840 12.063,36.172 17.380,38.266 C22.056,40.109 27.169,40.021 31.775,38.017 C36.383,36.013 39.935,32.333 41.777,27.656 C42.404,26.063 42.798,24.412 42.975,22.735 L39.552,25.158 L38.743,24.015 L44.145,20.190 L47.977,25.591 L46.834,26.401 ZM31.132,3.476 C26.457,1.633 21.343,1.720 16.737,3.725 C12.128,5.729 8.576,9.409 6.734,14.087 C6.107,15.679 5.713,17.331 5.535,19.007 L8.960,16.584 L9.769,17.727 L4.365,21.552 L0.534,16.151 L1.677,15.341 L4.147,18.824 C4.340,17.034 4.762,15.272 5.431,13.573 C7.410,8.547 11.227,4.594 16.178,2.441 C21.129,0.289 26.620,0.192 31.646,2.173 C37.358,4.423 41.688,9.078 43.527,14.942 L42.191,15.360 C40.480,9.902 36.448,5.570 31.132,3.476 Z"/>
</svg>